The program asks us to input 2 numbers and uses them like rows and columns. program prints y lines with x columns the simbol "@".
Input: 4 5
Output: @@@@
        @@@@
        @@@@
        @@@@
        @@@@

Input: 2 3
Output: @@
        @@
        @@
