Question!!!.
------------------------------------------------------------------------------------------------------
Label the elements of a 3-by-5 one -dimensional array sales to indicate the order in which they are 
set to zero by the following program segment:

for ( row = 0; row < 3; row++ ) {
    for ( column = 0; column < 5; column++ ) {
        sales[ row ][ column ] = 0;
    }
}
======================================================================================================


Answer!!!.
------------------------------------------------------------------------------------------------------
Now i explain it step by step.
Lets begin!!!!.

   1 step. Zeroing starts from the sales[0][0] element of  first line and finish on the sales[0][4]; =>
=> 2 step. Zeroing starts from the sales[1][0] element of second line and finish on the sales[1][4]; =>
=> 3 step. Zeroing starts from the sales[2][0] element of  third line and finish on the sales[2][4]; =>
=> And this is it!!!!.
